{
    "Air pollution - particulate matter": "8.1",
    "Limited access to healthy foods": "75.1",
    "Frequent mental distress": "12.4",
    "Smoking": "14.3",
    "Diabetes": "7.7",
    "Walkability": "40.3",
    "Opioid overdose deaths": "8.9",
    "Life expectancy": "79.9",
    "Obesity": "25.7",
    "Cardiovascular disease deaths": "168",
    "City": "Austin",
    "Lead exposure risk index": "3"
}