{
  "Name": "Austin",
  "State": "TX",
  "Population": "950,715",
  "Timezone": "CST",
  "Latitude": "30.2672",
  "Longitude": "-97.7431",
  "Average High": "80",
  "Average Low": "59",
  "Crime Index": "35.54",
  "Health Index": "64.46",
  "Climate Index": "66"
}