{
    "city": "Dallas",
    "spring": {
        "temperature": 62.191504304485846,
        "uv": 1.6982328953330312,
        "humidity": 0.6610647938377902,
        "ozone": 296.8112369732675,
        "windSpeed": 8.345405527865887
    },
    "winter": {
        "temperature": 51.03998168498165,
        "uv": 0.7202380952380952,
        "humidity": 0.6523076923076924,
        "ozone": 272.4214743589742,
        "windSpeed": 7.472174908424894
    },
    "autumn": {
        "temperature": 72.66669107551493,
        "uv": 1.5578947368421052,
        "humidity": 0.6276384439359275,
        "ozone": 280.2464073226548,
        "windSpeed": 7.319464530892438
    },
    "summer": {
        "temperature": 83.97813186813173,
        "uv": 2.467948717948718,
        "humidity": 0.6817170329670338,
        "ozone": 301.9739926739926,
        "windSpeed": 7.7814423076922985
    }
}