{
    "Air pollution - particulate matter": "6.6",
    "Limited access to healthy foods": "68.1",
    "Frequent mental distress": "15",
    "Smoking": "18.2",
    "Diabetes": "9.3",
    "Walkability": "64.9",
    "Opioid overdose deaths": "15.6",
    "Life expectancy": "78.1",
    "Obesity": "28.5",
    "Cardiovascular disease deaths": "229.1",
    "City": "Albany",
    "Lead exposure risk index": "10"
}