{
    "Air pollution - particulate matter": "8.1",
    "Limited access to healthy foods": "68.3",
    "Frequent mental distress": "14.3",
    "Smoking": "18.1",
    "Diabetes": "8.9",
    "Walkability": "25.3",
    "Opioid overdose deaths": "9.2",
    "Life expectancy": "78.1",
    "Obesity": "31.2",
    "Cardiovascular disease deaths": "231.7",
    "City": "Avondale",
    "Lead exposure risk index": "3"
}