{
    "Air pollution - particulate matter": "6.7",
    "Limited access to healthy foods": "18.8",
    "Frequent mental distress": "14.4",
    "Smoking": "16.4",
    "Diabetes": "8.8",
    "Walkability": "80.9",
    "Opioid overdose deaths": "26.8",
    "Life expectancy": "79.9",
    "Obesity": "24.6",
    "Cardiovascular disease deaths": "139.8",
    "City": "Boston",
    "Lead exposure risk index": "10"
}