{
    "Air pollution - particulate matter": "7.8",
    "Limited access to healthy foods": "44.3",
    "Frequent mental distress": "16.5",
    "Smoking": "23.6",
    "Diabetes": "13",
    "Walkability": "67.8",
    "Opioid overdose deaths": "39.5",
    "Life expectancy": "74.8",
    "Obesity": "35.1",
    "Cardiovascular disease deaths": "244.7",
    "City": "Buffalo",
    "Lead exposure risk index": "10"
}