{
    "Air pollution - particulate matter": "9.4",
    "Limited access to healthy foods": "65.3",
    "Frequent mental distress": "9.8",
    "Smoking": "11.6",
    "Diabetes": "7.4",
    "Walkability": "25.6",
    "Opioid overdose deaths": "6.5",
    "Life expectancy": "81.7",
    "Obesity": "26.1",
    "Cardiovascular disease deaths": "135.9",
    "City": "Cary",
    "Lead exposure risk index": "1"
}