{
    "Air pollution - particulate matter": "9.7",
    "Limited access to healthy foods": "81.1",
    "Frequent mental distress": "15.5",
    "Smoking": "22.7",
    "Diabetes": "13.7",
    "Walkability": "29.2",
    "Opioid overdose deaths": "15.6",
    "Life expectancy": "76.9",
    "Obesity": "33.2",
    "Cardiovascular disease deaths": "264.7",
    "City": "Chattanooga",
    "Lead exposure risk index": "7"
}