{
    "Air pollution - particulate matter": "9",
    "Limited access to healthy foods": "54.1",
    "Frequent mental distress": "11.9",
    "Smoking": "12.6",
    "Diabetes": "10.4",
    "Walkability": "42.3",
    "Opioid overdose deaths": "3.7",
    "Life expectancy": "81.4",
    "Obesity": "24.1",
    "Cardiovascular disease deaths": "175.9",
    "City": "Chula Vista",
    "Lead exposure risk index": "3"
}