{
    "Air pollution - particulate matter": "8.4",
    "Limited access to healthy foods": "88.6",
    "Frequent mental distress": "15.8",
    "Smoking": "23.6",
    "Diabetes": "9.3",
    "Walkability": "17.5",
    "Opioid overdose deaths": "9.6",
    "Life expectancy": "76.3",
    "Obesity": "32.9",
    "Cardiovascular disease deaths": "244.1",
    "City": "Clarksville",
    "Lead exposure risk index": "3"
}