{
    "Air pollution - particulate matter": "8.8",
    "Limited access to healthy foods": "69",
    "Frequent mental distress": "15.7",
    "Smoking": "22.9",
    "Diabetes": "10.2",
    "Walkability": "40.7",
    "Opioid overdose deaths": "25.1",
    "Life expectancy": "77",
    "Obesity": "34.5",
    "Cardiovascular disease deaths": "213.2",
    "City": "Columbus",
    "Lead exposure risk index": "7"
}