{
    "Air pollution - particulate matter": "7.5",
    "Limited access to healthy foods": "78.5",
    "Frequent mental distress": "13.5",
    "Smoking": "16.6",
    "Diabetes": "13.9",
    "Walkability": "40.6",
    "Opioid overdose deaths": "9.9",
    "Life expectancy": "77.5",
    "Obesity": "34.6",
    "Cardiovascular disease deaths": "214.6",
    "City": "Corpus Christi",
    "Lead exposure risk index": "5"
}