{
    "Air pollution - particulate matter": "9.4",
    "Limited access to healthy foods": "73.6",
    "Frequent mental distress": "12.9",
    "Smoking": "17.5",
    "Diabetes": "9.6",
    "Walkability": "41.4",
    "Opioid overdose deaths": "12.4",
    "Life expectancy": "80.3",
    "Obesity": "31",
    "Cardiovascular disease deaths": "189.5",
    "City": "Elgin",
    "Lead exposure risk index": "6"
}