{
    "Air pollution - particulate matter": "9.2",
    "Limited access to healthy foods": "68.5",
    "Frequent mental distress": "11.7",
    "Smoking": "12.7",
    "Diabetes": "9.1",
    "Walkability": "31.9",
    "Opioid overdose deaths": "",
    "Life expectancy": "81.1",
    "Obesity": "26.5",
    "Cardiovascular disease deaths": "184.1",
    "City": "Elk Grove",
    "Lead exposure risk index": "1"
}