{
    "Air pollution - particulate matter": "8.9",
    "Limited access to healthy foods": "82.4",
    "Frequent mental distress": "10.2",
    "Smoking": "12.7",
    "Diabetes": "6.8",
    "Walkability": "22.4",
    "Opioid overdose deaths": "4.2",
    "Life expectancy": "80.6",
    "Obesity": "28.1",
    "Cardiovascular disease deaths": "199.2",
    "City": "Frisco",
    "Lead exposure risk index": "1"
}