{
    "Air pollution - particulate matter": "7",
    "Limited access to healthy foods": "19.2",
    "Frequent mental distress": "16.7",
    "Smoking": "19.3",
    "Diabetes": "13.4",
    "Walkability": "71.1",
    "Opioid overdose deaths": "41.9",
    "Life expectancy": "77.1",
    "Obesity": "36.7",
    "Cardiovascular disease deaths": "166.9",
    "City": "Hartford",
    "Lead exposure risk index": "10"
}