{
    "Air pollution - particulate matter": "8.9",
    "Limited access to healthy foods": "3.1",
    "Frequent mental distress": "12.9",
    "Smoking": "17",
    "Diabetes": "10.6",
    "Walkability": "87.3",
    "Opioid overdose deaths": "14.4",
    "Life expectancy": "78.4",
    "Obesity": "27.3",
    "Cardiovascular disease deaths": "181.9",
    "City": "Jersey City",
    "Lead exposure risk index": "9"
}