{
    "Air pollution - particulate matter": "8.4",
    "Limited access to healthy foods": "75.9",
    "Frequent mental distress": "16.6",
    "Smoking": "23.3",
    "Diabetes": "13.9",
    "Walkability": "37.5",
    "Opioid overdose deaths": "",
    "Life expectancy": "75.1",
    "Obesity": "37",
    "Cardiovascular disease deaths": "333.4",
    "City": "Lake Charles",
    "Lead exposure risk index": "8"
}