{
    "Air pollution - particulate matter": "8.5",
    "Limited access to healthy foods": "75.4",
    "Frequent mental distress": "16.8",
    "Smoking": "22.6",
    "Diabetes": "11.2",
    "Walkability": "44.7",
    "Opioid overdose deaths": "35.8",
    "Life expectancy": "77.5",
    "Obesity": "35.1",
    "Cardiovascular disease deaths": "230.6",
    "City": "Lansing",
    "Lead exposure risk index": "9"
}