{
    "Air pollution - particulate matter": "7.4",
    "Limited access to healthy foods": "84.7",
    "Frequent mental distress": "11.7",
    "Smoking": "17.4",
    "Diabetes": "7.9",
    "Walkability": "20.7",
    "Opioid overdose deaths": "6.4",
    "Life expectancy": "79.9",
    "Obesity": "28.2",
    "Cardiovascular disease deaths": "165.7",
    "City": "Lee's Summit",
    "Lead exposure risk index": "1"
}