{
    "Air pollution - particulate matter": "8",
    "Limited access to healthy foods": "70.4",
    "Frequent mental distress": "11",
    "Smoking": "12.6",
    "Diabetes": "7",
    "Walkability": "36.8",
    "Opioid overdose deaths": "",
    "Life expectancy": "81",
    "Obesity": "23.1",
    "Cardiovascular disease deaths": "165.8",
    "City": "Livermore",
    "Lead exposure risk index": "2"
}