{
    "Air pollution - particulate matter": "10.9",
    "Limited access to healthy foods": "64.4",
    "Frequent mental distress": "14",
    "Smoking": "15.8",
    "Diabetes": "9.5",
    "Walkability": "38.7",
    "Opioid overdose deaths": "8.5",
    "Life expectancy": "79.1",
    "Obesity": "30.8",
    "Cardiovascular disease deaths": "259.4",
    "City": "Manteca",
    "Lead exposure risk index": "2"
}