{
    "Air pollution - particulate matter": "11.3",
    "Limited access to healthy foods": "64.4",
    "Frequent mental distress": "16.2",
    "Smoking": "17.9",
    "Diabetes": "11.6",
    "Walkability": "40.6",
    "Opioid overdose deaths": "14.4",
    "Life expectancy": "77.4",
    "Obesity": "29.7",
    "Cardiovascular disease deaths": "340.4",
    "City": "Merced",
    "Lead exposure risk index": "8"
}