{
    "Air pollution - particulate matter": "7.5",
    "Limited access to healthy foods": "60.8",
    "Frequent mental distress": "13.4",
    "Smoking": "17.3",
    "Diabetes": "9.4",
    "Walkability": "15.9",
    "Opioid overdose deaths": "13.5",
    "Life expectancy": "78.3",
    "Obesity": "29.2",
    "Cardiovascular disease deaths": "193.6",
    "City": "Mesa",
    "Lead exposure risk index": "3"
}