{
    "Air pollution - particulate matter": "8.9",
    "Limited access to healthy foods": "46.9",
    "Frequent mental distress": "15.9",
    "Smoking": "22.4",
    "Diabetes": "9.9",
    "Walkability": "62.1",
    "Opioid overdose deaths": "30.9",
    "Life expectancy": "",
    "Obesity": "35",
    "Cardiovascular disease deaths": "225.2",
    "City": "Milwaukee",
    "Lead exposure risk index": "10"
}