{
    "Air pollution - particulate matter": "9.5",
    "Limited access to healthy foods": "86",
    "Frequent mental distress": "10.7",
    "Smoking": "13.6",
    "Diabetes": "11.7",
    "Walkability": "23.7",
    "Opioid overdose deaths": "",
    "Life expectancy": "79.8",
    "Obesity": "31.3",
    "Cardiovascular disease deaths": "210.4",
    "City": "Missouri City",
    "Lead exposure risk index": "1"
}