{
    "Air pollution - particulate matter": "10.1",
    "Limited access to healthy foods": "78.2",
    "Frequent mental distress": "16",
    "Smoking": "21.2",
    "Diabetes": "14.2",
    "Walkability": "26.9",
    "Opioid overdose deaths": "",
    "Life expectancy": "75.3",
    "Obesity": "38.4",
    "Cardiovascular disease deaths": "233.3",
    "City": "Montgomery",
    "Lead exposure risk index": "7"
}