{
    "Air pollution - particulate matter": "8.7",
    "Limited access to healthy foods": "81.2",
    "Frequent mental distress": "19.1",
    "Smoking": "24.6",
    "Diabetes": "10.6",
    "Walkability": "36.2",
    "Opioid overdose deaths": "18",
    "Life expectancy": "76.3",
    "Obesity": "35.6",
    "Cardiovascular disease deaths": "266.4",
    "City": "Muncie",
    "Lead exposure risk index": "10"
}