{
    "Air pollution - particulate matter": "8.3",
    "Limited access to healthy foods": "24.8",
    "Frequent mental distress": "12.2",
    "Smoking": "13.9",
    "Diabetes": "10",
    "Walkability": "67.3",
    "Opioid overdose deaths": "10.3",
    "Life expectancy": "81.8",
    "Obesity": "25.3",
    "Cardiovascular disease deaths": "186.2",
    "City": "New Rochelle",
    "Lead exposure risk index": "8"
}