{
    "Air pollution - particulate matter": "8.3",
    "Limited access to healthy foods": "73.4",
    "Frequent mental distress": "15.6",
    "Smoking": "20",
    "Diabetes": "11.6",
    "Walkability": "33.1",
    "Opioid overdose deaths": "8.5",
    "Life expectancy": "76",
    "Obesity": "34.2",
    "Cardiovascular disease deaths": "230.4",
    "City": "Oklahoma City",
    "Lead exposure risk index": "6"
}