{
    "Air pollution - particulate matter": "8.6",
    "Limited access to healthy foods": "6.9",
    "Frequent mental distress": "18.2",
    "Smoking": "20.9",
    "Diabetes": "14.7",
    "Walkability": "82.8",
    "Opioid overdose deaths": "9",
    "Life expectancy": "79.2",
    "Obesity": "31.5",
    "Cardiovascular disease deaths": "166.2",
    "City": "Passaic",
    "Lead exposure risk index": "10"
}