{
    "Air pollution - particulate matter": "7.3",
    "Limited access to healthy foods": "60.6",
    "Frequent mental distress": "11.9",
    "Smoking": "14.4",
    "Diabetes": "8.8",
    "Walkability": "31.5",
    "Opioid overdose deaths": "7.5",
    "Life expectancy": "79.7",
    "Obesity": "24",
    "Cardiovascular disease deaths": "220.5",
    "City": "Plantation",
    "Lead exposure risk index": "2"
}