{
    "Air pollution - particulate matter": "7.8",
    "Limited access to healthy foods": "44.7",
    "Frequent mental distress": "10.6",
    "Smoking": "11.5",
    "Diabetes": "8.8",
    "Walkability": "50.5",
    "Opioid overdose deaths": "3.9",
    "Life expectancy": "82.4",
    "Obesity": "20.3",
    "Cardiovascular disease deaths": "169.5",
    "City": "San Jose",
    "Lead exposure risk index": "3"
}