{
    "Air pollution - particulate matter": "12.4",
    "Limited access to healthy foods": "21.2",
    "Frequent mental distress": "15.1",
    "Smoking": "15.3",
    "Diabetes": "11.5",
    "Walkability": "68.9",
    "Opioid overdose deaths": "",
    "Life expectancy": "81.1",
    "Obesity": "29.4",
    "Cardiovascular disease deaths": "166.6",
    "City": "South Gate",
    "Lead exposure risk index": "9"
}