{
    "Air pollution - particulate matter": "8.4",
    "Limited access to healthy foods": "80.8",
    "Frequent mental distress": "16",
    "Smoking": "18.3",
    "Diabetes": "7",
    "Walkability": "31.9",
    "Opioid overdose deaths": "5.9",
    "Life expectancy": "78.2",
    "Obesity": "30.9",
    "Cardiovascular disease deaths": "224.6",
    "City": "Tallahassee",
    "Lead exposure risk index": "6"
}