{
    "Air pollution - particulate matter": "9.3",
    "Limited access to healthy foods": "70.2",
    "Frequent mental distress": "12.4",
    "Smoking": "13.6",
    "Diabetes": "7.9",
    "Walkability": "27.7",
    "Opioid overdose deaths": "4.5",
    "Life expectancy": "82.1",
    "Obesity": "25",
    "Cardiovascular disease deaths": "228.9",
    "City": "Temecula",
    "Lead exposure risk index": "1"
}