{
    "Air pollution - particulate matter": "9.1",
    "Limited access to healthy foods": "59.2",
    "Frequent mental distress": "17",
    "Smoking": "26.1",
    "Diabetes": "14.1",
    "Walkability": "45.9",
    "Opioid overdose deaths": "37",
    "Life expectancy": "74.9",
    "Obesity": "42.9",
    "Cardiovascular disease deaths": "272.4",
    "City": "Toledo",
    "Lead exposure risk index": "10"
}