{
    "Air pollution - particulate matter": "9.5",
    "Limited access to healthy foods": "44.6",
    "Frequent mental distress": "15",
    "Smoking": "23",
    "Diabetes": "10.2",
    "Walkability": "37.2",
    "Opioid overdose deaths": "37.8",
    "Life expectancy": "75.4",
    "Obesity": "31",
    "Cardiovascular disease deaths": "308.2",
    "City": "Westland",
    "Lead exposure risk index": "6"
}