{
    "Air pollution - particulate matter": "8.5",
    "Limited access to healthy foods": "78.2",
    "Frequent mental distress": "14.4",
    "Smoking": "20.1",
    "Diabetes": "11.3",
    "Walkability": "23",
    "Opioid overdose deaths": "15.1",
    "Life expectancy": "77.1",
    "Obesity": "33.8",
    "Cardiovascular disease deaths": "186.1",
    "City": "Winston-Salem",
    "Lead exposure risk index": "7"
}