{
    "city": "Anaheim",
    "spring": {
        "temperature": 61.03919800634344,
        "uv": 1.6628908019936566,
        "humidity": 0.6537607612143174,
        "ozone": 318.1783869506113,
        "windSpeed": 3.8389714544630724
    },
    "winter": {
        "temperature": 57.00050824175815,
        "uv": 0.6556776556776557,
        "humidity": 0.63059065934066,
        "ozone": 289.9645146520149,
        "windSpeed": 3.7626739926739936
    },
    "autumn": {
        "temperature": 70.73790389016011,
        "uv": 1.5620137299771166,
        "humidity": 0.5784485125858118,
        "ozone": 283.557574370709,
        "windSpeed": 3.946164759725395
    },
    "summer": {
        "temperature": 69.44487179487186,
        "uv": 2.363095238095238,
        "humidity": 0.7118589743589707,
        "ozone": 318.0113553113555,
        "windSpeed": 3.9238141025640902
    }
}