{
    "city": "Long Beach",
    "spring": {
        "temperature": 60.272999546896216,
        "uv": 1.6234707748074308,
        "humidity": 0.7372995015858606,
        "ozone": 317.7271409152698,
        "windSpeed": 5.9935115541458925
    },
    "winter": {
        "temperature": 56.56043956043961,
        "uv": 0.6588827838827839,
        "humidity": 0.6967170329670347,
        "ozone": 289.8228937728945,
        "windSpeed": 5.597431318681331
    },
    "autumn": {
        "temperature": 68.67321739130436,
        "uv": 1.5107551487414188,
        "humidity": 0.6993272311212811,
        "ozone": 283.7985354691074,
        "windSpeed": 5.192443935926768
    },
    "summer": {
        "temperature": 67.00951923076903,
        "uv": 2.18040293040293,
        "humidity": 0.7978250915750941,
        "ozone": 317.9388278388273,
        "windSpeed": 5.506895604395594
    }
}