{
    "city": "Plano",
    "spring": {
        "temperature": 60.95387403715446,
        "uv": 1.695514272768464,
        "humidity": 0.6914680561848706,
        "ozone": 297.7275487086544,
        "windSpeed": 8.974612596284546
    },
    "winter": {
        "temperature": 49.87374084249087,
        "uv": 0.7110805860805861,
        "humidity": 0.6918864468864486,
        "ozone": 273.2881868131865,
        "windSpeed": 8.164473443223446
    },
    "autumn": {
        "temperature": 71.46239816933642,
        "uv": 1.5551487414187644,
        "humidity": 0.64999542334096,
        "ozone": 280.75299771167073,
        "windSpeed": 7.757368421052636
    },
    "summer": {
        "temperature": 82.83032051282038,
        "uv": 2.4826007326007327,
        "humidity": 0.7033882783882798,
        "ozone": 302.43145604395636,
        "windSpeed": 8.14241758241758
    }
}