{
    "city": "St. Petersburg",
    "spring": {
        "temperature": 73.0770457634797,
        "uv": 2.207521522428636,
        "humidity": 0.7524059809696401,
        "ozone": 275.5452197553236,
        "windSpeed": 8.431078386950615
    },
    "winter": {
        "temperature": 64.80385531135528,
        "uv": 1.0421245421245422,
        "humidity": 0.7852426739926772,
        "ozone": 252.2056776556778,
        "windSpeed": 6.65967948717949
    },
    "autumn": {
        "temperature": 79.573414187643,
        "uv": 1.77116704805492,
        "humidity": 0.7702471395880965,
        "ozone": 272.55524027459893,
        "windSpeed": 6.276475972540029
    },
    "summer": {
        "temperature": 82.67769688644688,
        "uv": 2.48992673992674,
        "humidity": 0.7977060439560428,
        "ozone": 294.43067765567747,
        "windSpeed": 6.922724358974358
    }
}