{
    "city": "Tucson",
    "spring": {
        "temperature": 65.13501358695643,
        "uv": 2.005434782608696,
        "humidity": 0.30897644927536155,
        "ozone": 304.90303442029006,
        "windSpeed": 6.590502717391306
    },
    "winter": {
        "temperature": 52.94097069597063,
        "uv": 0.7884615384615384,
        "humidity": 0.5144642857142854,
        "ozone": 278.25512820512847,
        "windSpeed": 6.092188644688649
    },
    "autumn": {
        "temperature": 76.43685897435905,
        "uv": 1.7380952380952381,
        "humidity": 0.3435805860805863,
        "ozone": 278.46808608058643,
        "windSpeed": 5.900334249084244
    },
    "summer": {
        "temperature": 86.16602564102566,
        "uv": 2.777014652014652,
        "humidity": 0.2485805860805856,
        "ozone": 303.53717948717974,
        "windSpeed": 6.1193543956043985
    }
}